<?xml version="1.0" encoding="UTF-8" standalone="no"?>
<svg
   xmlns:dc="http://purl.org/dc/elements/1.1/"
   xmlns:cc="http://creativecommons.org/ns#"
   xmlns:rdf="http://www.w3.org/1999/02/22-rdf-syntax-ns#"
   xmlns:svg="http://www.w3.org/2000/svg"
   xmlns="http://www.w3.org/2000/svg"
   height="19.6"
   width="20.299999"
   xml:space="preserve"
   enable-background="new 127.4 141 145.2 18"
   viewBox="127.4 141 20.3 19.6"
   y="0px"
   x="0px"
   id="Layer_1"
   version="1.1"><metadata
     id="metadata894"><rdf:RDF><cc:Work
         rdf:about=""><dc:format>image/svg+xml</dc:format><dc:type
           rdf:resource="http://purl.org/dc/dcmitype/StillImage" /><dc:title></dc:title></cc:Work></rdf:RDF></metadata><defs
     id="defs892" /><path
     d="M 145.2,157.8 138.9,142 h -4.5 l 0.8,2 -5.4,13.8 c -0.2,0.7 -0.8,0.8 -1.4,0.9 v 0.9 h 5.2 v -0.9 0 0 0 0 c -1.4,-0.1 -2.2,-0.3 -1.6,-1.8 0.1,-0.1 0.5,-1.2 1,-2.6 h 6.4 l 0.9,2.3 c 0.1,0.4 0.2,0.7 0.2,1 0,0.8 -0.7,1.1 -2,1.1 v 0.9 h 8.2 v -0.9 c -0.7,-0.1 -1.3,-0.3 -1.5,-0.9 z m -11.6,-5.2 c 1,-2.5 2.1,-5.4 2.5,-6.5 l 2.6,6.5 z"
     id="path883"
     style="fill:#727272;fill-opacity:1" /></svg>