<?xml version="1.0" encoding="UTF-8" standalone="no"?>
<svg
   xmlns:dc="http://purl.org/dc/elements/1.1/"
   xmlns:cc="http://creativecommons.org/ns#"
   xmlns:rdf="http://www.w3.org/1999/02/22-rdf-syntax-ns#"
   xmlns:svg="http://www.w3.org/2000/svg"
   xmlns="http://www.w3.org/2000/svg"
   viewBox="0 0 431.99999 432.00001"
   height="432"
   width="432"
   xml:space="preserve"
   id="svg2"
   version="1.1"><metadata
     id="metadata8"><rdf:RDF><cc:Work
         rdf:about=""><dc:format>image/svg+xml</dc:format><dc:type
           rdf:resource="http://purl.org/dc/dcmitype/StillImage" /><dc:title></dc:title></cc:Work></rdf:RDF></metadata><defs
     id="defs6"><clipPath
       id="clipPath18"
       clipPathUnits="userSpaceOnUse"><path
         id="path16"
         d="M 0,595.28 H 841.89 V 0 H 0 Z" /></clipPath></defs><g
     transform="matrix(1.3333333,0,0,-1.3333333,-333.46332,674.78985)"
     id="g10"><g
       transform="translate(6.6173003,111.12235)"
       id="g925"><g
         id="g48"
         transform="translate(453.9277,245.6914)"><path
           d="m 0,0 c -12.967,0 -19.592,-10.206 -19.592,-25.579 0,-14.533 7.165,-25.442 19.592,-25.442 14.055,0 19.324,12.861 19.324,25.442 C 19.314,-12.444 12.691,0 -0.004,0 m -34.449,38.156 h 15.402 V 1.259 h 0.272 c 4.189,6.986 12.97,11.321 20.808,11.321 22.022,0 32.699,-17.337 32.699,-38.444 0,-19.422 -9.457,-37.735 -30.134,-37.735 -9.457,0 -19.591,2.371 -24.188,11.879 h -0.266 v -9.927 h -14.595 v 99.801 z"
           style="fill:#211f1f;fill-opacity:1;fill-rule:nonzero;stroke:none"
           id="path50" /></g><g
         id="g52"
         transform="translate(545.4619,232.1279)"><path
           d="m 0,0 c -1.218,8.807 -7.431,13.563 -15.944,13.563 -7.975,0 -19.188,-4.335 -19.188,-26.282 0,-12.021 5.133,-24.743 18.512,-24.743 8.916,0 15.129,6.157 16.62,16.501 H 15.401 C 12.563,-39.69 1.351,-50.035 -16.62,-50.035 c -21.891,0 -33.914,16.071 -33.914,37.316 0,21.805 11.484,38.858 34.455,38.858 16.213,0 29.998,-8.385 31.48,-26.139 L 0.024,0 Z"
           style="fill:#211f1f;fill-opacity:1;fill-rule:nonzero;stroke:none"
           id="path54" /></g><g
         id="g56"
         transform="translate(365.6245,184.2607)"><path
           d="m 0,0 h -115.527 l 53.949,99.587 H 53.95 Z"
           style="fill:#639aa9;fill-opacity:1;fill-rule:nonzero;stroke:none"
           id="path58" /></g></g></g></svg>